{
	"Taux" : "%/Facture/Tarification/Taux", 
	"Exoneration" : "%/Facture/Tarification/Exoneration", 
	"Montant_honoraires" : "%/Facture/Tarification/Montant_honoraires", 
	"Base_remboursement_theorique" : "%/Facture/Tarification/Base_remboursement_theorique", 
	"Base_remboursement" : "%/Facture/Tarification/Base_remboursement", 
	"Total_honoraires" : "%/Facture/Tarification/Total_honoraires", 
	"Montant_remboursable_AMO" : "%/Facture/Tarification/Montant_remboursable_AMO", 
	"Total_AMO" : "%/Facture/Tarification/Total_AMO", 
	"Montant_remboursable_AMC" : "%/Facture/Tarification/Montant_remboursable_AMC", 
	"Total_AMC" : "%/Facture/Tarification/Total_AMC", 
	"Total_assure" : "%/Facture/Tarification/Total_assure",
	
	"Erreur" : {
		"Message" : "%/Erreurs/Erreur/Message"
	}
}