TableT4: Table listant les actes et coefficients générant une exonération
Version: 1.40.20110222
Code prestation,Coefficient minimal en centièmes,Code d'exonération (0 = rien)
Z,6000,3
KE,6000,3
ZN,6000,3
K,6000,3
KC,6000,3
KCC,6000,3
D,6000,3
DC,6000,3
ORT,6000,3
TO,6000,3
